…
bicis$hours = factor(bicis$hours, levels=rev(levels(bicis$hours)))

bicis$date = as.Date(bicis$fecha, format="%d/%m/%Y")

bicis = bicis %>%
  mutate(week_day = wday(date, label = TRUE)) %>%
  select(date, hours, week_day, everything())

bicis %>% 
  select(date, hours, week_day, counts_date, accidents) %>%
  as.tibble()

## # A tibble: 739 x 6
## # Groups:   tramo_horario [24]
##    tramo_horario    date       hours        week_day counts_date accidents
##    <chr>            <date>     <fct>        <ord>          <int>     <int>
##  1 DE 6:00 A 6:59   2017-01-01 DE 6:00 A 6… Sun                1         5
##  2 DE 21:00 A 21:59 2017-01-02 DE 21:00 A … Mon                1        47
##  3 DE 19:00 A 19:59 2017-01-03 DE 19:00 A … Tue                1        65
##  4 DE 21:00 A 21:59 2017-01-04 DE 21:00 A … Wed                1        47
##  5 DE 8:00 A 8:59   2017-01-05 DE 8:00 A 8… Thu                4        36
##  6 DE 12:00 A 12:59 2017-01-05 DE 12:00 A … Thu                4        40
##  7 DE 14:00 A 14:59 2017-01-05 DE 14:00 A … Thu                4        59
##  8 DE 17:00 A 17:59 2017-01-05 DE 17:00 A … Thu                4        38
##  9 DE 11:00 A 11:59 2017-01-06 DE 11:00 A … Fri                2        31
## 10 DE 17:00 A 17:59 2017-01-06 DE 17:00 A … Fri                2        38
## # ... with 729 more rows
…
# accidents by hour and week day
bicis_events = bicis %>%
  group_by(hours, week_day) %>%
  mutate(accidents = n()) %>% 
  select(hours, week_day, accidents) %>%
  unique()

# total accidents by  
bicis_event_total  = bicis_events %>%
  group_by(hours, week_day) %>% 
  summarise(accidents = sum(accidents))

bicis_event_total %>% as.tibble()

## # A tibble: 147 x 3
## # Groups:   hours [?]
##    hours            week_day accidents
##    <fct>            <ord>        <int>
##  1 DE 23:00 A 23:59 Sun              1
##  2 DE 23:00 A 23:59 Mon              3
##  3 DE 23:00 A 23:59 Tue              5
##  4 DE 23:00 A 23:59 Wed              2
##  5 DE 23:00 A 23:59 Thu              4
##  6 DE 23:00 A 23:59 Fri              1
##  7 DE 23:00 A 23:59 Sat              3
##  8 DE 22:00 A 22:59 Sun              2
##  9 DE 22:00 A 22:59 Mon              4
## 10 DE 22:00 A 22:59 Tue              6
## # ... with 137 more rows
…
